<?xml version="1.0" encoding="utf-8"?>
<!DOCTYPE eagle SYSTEM "eagle.dtd">
<eagle version="7.4.0">
<drawing>
<settings>
<setting alwaysvectorfont="no"/>
<setting verticaltext="up"/>
</settings>
<grid distance="0.1" unitdist="inch" unit="inch" style="lines" multiple="1" display="no" altdistance="0.01" altunitdist="inch" altunit="inch"/>
<layers>
<layer number="1" name="Top" color="4" fill="1" visible="no" active="no"/>
<layer number="16" name="Bottom" color="1" fill="1" visible="no" active="no"/>
<layer number="17" name="Pads" color="2" fill="1" visible="no" active="no"/>
<layer number="18" name="Vias" color="2" fill="1" visible="no" active="no"/>
<layer number="19" name="Unrouted" color="6" fill="1" visible="no" active="no"/>
<layer number="20" name="Dimension" color="15" fill="1" visible="no" active="no"/>
<layer number="21" name="tPlace" color="7" fill="1" visible="no" active="no"/>
<layer number="22" name="bPlace" color="7" fill="1" visible="no" active="no"/>
<layer number="23" name="tOrigins" color="15" fill="1" visible="no" active="no"/>
<layer number="24" name="bOrigins" color="15" fill="1" visible="no" active="no"/>
<layer number="25" name="tNames" color="7" fill="1" visible="no" active="no"/>
<layer number="26" name="bNames" color="7" fill="1" visible="no" active="no"/>
<layer number="27" name="tValues" color="7" fill="1" visible="no" active="no"/>
<layer number="28" name="bValues" color="7" fill="1" visible="no" active="no"/>
<layer number="29" name="tStop" color="7" fill="3" visible="no" active="no"/>
<layer number="30" name="bStop" color="7" fill="6" visible="no" active="no"/>
<layer number="31" name="tCream" color="7" fill="4" visible="no" active="no"/>
<layer number="32" name="bCream" color="7" fill="5" visible="no" active="no"/>
<layer number="33" name="tFinish" color="6" fill="3" visible="no" active="no"/>
<layer number="34" name="bFinish" color="6" fill="6" visible="no" active="no"/>
<layer number="35" name="tGlue" color="7" fill="4" visible="no" active="no"/>
<layer number="36" name="bGlue" color="7" fill="5" visible="no" active="no"/>
<layer number="37" name="tTest" color="7" fill="1" visible="no" active="no"/>
<layer number="38" name="bTest" color="7" fill="1" visible="no" active="no"/>
<layer number="39" name="tKeepout" color="4" fill="11" visible="no" active="no"/>
<layer number="40" name="bKeepout" color="1" fill="11" visible="no" active="no"/>
<layer number="41" name="tRestrict" color="4" fill="10" visible="no" active="no"/>
<layer number="42" name="bRestrict" color="1" fill="10" visible="no" active="no"/>
<layer number="43" name="vRestrict" color="2" fill="10" visible="no" active="no"/>
<layer number="44" name="Drills" color="7" fill="1" visible="no" active="no"/>
<layer number="45" name="Holes" color="7" fill="1" visible="no" active="no"/>
<layer number="46" name="Milling" color="3" fill="1" visible="no" active="no"/>
<layer number="47" name="Measures" color="7" fill="1" visible="no" active="no"/>
<layer number="48" name="Document" color="7" fill="1" visible="no" active="no"/>
<layer number="49" name="Reference" color="7" fill="1" visible="no" active="no"/>
<layer number="50" name="dxf" color="7" fill="1" visible="no" active="no"/>
<layer number="51" name="tDocu" color="7" fill="1" visible="no" active="no"/>
<layer number="52" name="bDocu" color="7" fill="1" visible="no" active="no"/>
<layer number="53" name="tGND_GNDA" color="7" fill="9" visible="no" active="no"/>
<layer number="54" name="bGND_GNDA" color="1" fill="9" visible="no" active="no"/>
<layer number="56" name="wert" color="7" fill="1" visible="no" active="no"/>
<layer number="57" name="tCAD" color="7" fill="1" visible="no" active="no"/>
<layer number="59" name="tCarbon" color="7" fill="1" visible="no" active="no"/>
<layer number="60" name="bCarbon" color="7" fill="1" visible="no" active="no"/>
<layer number="90" name="Modules" color="5" fill="1" visible="yes" active="yes"/>
<layer number="91" name="Nets" color="2" fill="1" visible="yes" active="yes"/>
<layer number="92" name="Busses" color="1" fill="1" visible="yes" active="yes"/>
<layer number="93" name="Pins" color="2" fill="1" visible="no" active="yes"/>
<layer number="94" name="Symbols" color="4" fill="1" visible="yes" active="yes"/>
<layer number="95" name="Names" color="7" fill="1" visible="yes" active="yes"/>
<layer number="96" name="Values" color="7" fill="1" visible="yes" active="yes"/>
<layer number="97" name="Info" color="7" fill="1" visible="yes" active="yes"/>
<layer number="98" name="Guide" color="6" fill="1" visible="yes" active="yes"/>
<layer number="99" name="SpiceOrder" color="7" fill="1" visible="yes" active="yes"/>
<layer number="100" name="Muster" color="7" fill="1" visible="no" active="no"/>
<layer number="101" name="Patch_Top" color="12" fill="4" visible="yes" active="yes"/>
<layer number="102" name="Vscore" color="7" fill="1" visible="yes" active="yes"/>
<layer number="103" name="tMap" color="7" fill="1" visible="yes" active="yes"/>
<layer number="104" name="Name" color="16" fill="1" visible="yes" active="yes"/>
<layer number="105" name="tPlate" color="7" fill="1" visible="yes" active="yes"/>
<layer number="106" name="bPlate" color="7" fill="1" visible="yes" active="yes"/>
<layer number="107" name="Crop" color="7" fill="1" visible="yes" active="yes"/>
<layer number="108" name="tplace-old" color="10" fill="1" visible="yes" active="yes"/>
<layer number="109" name="ref-old" color="11" fill="1" visible="yes" active="yes"/>
<layer number="110" name="fp0" color="7" fill="1" visible="yes" active="yes"/>
<layer number="111" name="LPC17xx" color="7" fill="1" visible="yes" active="yes"/>
<layer number="112" name="tSilk" color="7" fill="1" visible="yes" active="yes"/>
<layer number="113" name="IDFDebug" color="7" fill="1" visible="yes" active="yes"/>
<layer number="114" name="Badge_Outline" color="7" fill="1" visible="yes" active="yes"/>
<layer number="115" name="ReferenceISLANDS" color="7" fill="1" visible="yes" active="yes"/>
<layer number="116" name="Patch_BOT" color="9" fill="4" visible="yes" active="yes"/>
<layer number="118" name="Rect_Pads" color="7" fill="1" visible="yes" active="yes"/>
<layer number="121" name="_tsilk" color="7" fill="1" visible="yes" active="yes"/>
<layer number="122" name="_bsilk" color="7" fill="1" visible="yes" active="yes"/>
<layer number="123" name="tTestmark" color="7" fill="1" visible="yes" active="yes"/>
<layer number="124" name="bTestmark" color="7" fill="1" visible="yes" active="yes"/>
<layer number="125" name="_tNames" color="7" fill="1" visible="yes" active="yes"/>
<layer number="126" name="_bNames" color="7" fill="1" visible="yes" active="yes"/>
<layer number="127" name="_tValues" color="7" fill="1" visible="yes" active="yes"/>
<layer number="128" name="_bValues" color="7" fill="1" visible="yes" active="yes"/>
<layer number="129" name="Mask" color="7" fill="1" visible="yes" active="yes"/>
<layer number="131" name="tAdjust" color="7" fill="1" visible="yes" active="yes"/>
<layer number="132" name="bAdjust" color="7" fill="1" visible="yes" active="yes"/>
<layer number="144" name="Drill_legend" color="7" fill="1" visible="yes" active="yes"/>
<layer number="150" name="Notes" color="7" fill="1" visible="yes" active="yes"/>
<layer number="151" name="HeatSink" color="7" fill="1" visible="yes" active="yes"/>
<layer number="152" name="_bDocu" color="7" fill="1" visible="yes" active="yes"/>
<layer number="153" name="FabDoc1" color="7" fill="1" visible="yes" active="yes"/>
<layer number="154" name="FabDoc2" color="7" fill="1" visible="yes" active="yes"/>
<layer number="155" name="FabDoc3" color="7" fill="1" visible="yes" active="yes"/>
<layer number="199" name="Contour" color="7" fill="1" visible="yes" active="yes"/>
<layer number="200" name="200bmp" color="1" fill="10" visible="yes" active="yes"/>
<layer number="201" name="201bmp" color="2" fill="10" visible="yes" active="yes"/>
<layer number="202" name="202bmp" color="3" fill="10" visible="yes" active="yes"/>
<layer number="203" name="203bmp" color="4" fill="10" visible="yes" active="yes"/>
<layer number="204" name="204bmp" color="5" fill="10" visible="yes" active="yes"/>
<layer number="205" name="205bmp" color="6" fill="10" visible="yes" active="yes"/>
<layer number="206" name="206bmp" color="7" fill="10" visible="yes" active="yes"/>
<layer number="207" name="207bmp" color="8" fill="10" visible="yes" active="yes"/>
<layer number="208" name="208bmp" color="9" fill="10" visible="yes" active="yes"/>
<layer number="209" name="209bmp" color="7" fill="1" visible="yes" active="yes"/>
<layer number="210" name="210bmp" color="7" fill="1" visible="yes" active="yes"/>
<layer number="211" name="211bmp" color="7" fill="1" visible="yes" active="yes"/>
<layer number="212" name="212bmp" color="7" fill="1" visible="yes" active="yes"/>
<layer number="213" name="213bmp" color="7" fill="1" visible="yes" active="yes"/>
<layer number="214" name="214bmp" color="7" fill="1" visible="yes" active="yes"/>
<layer number="215" name="215bmp" color="7" fill="1" visible="yes" active="yes"/>
<layer number="216" name="216bmp" color="7" fill="1" visible="yes" active="yes"/>
<layer number="217" name="217bmp" color="18" fill="1" visible="no" active="no"/>
<layer number="218" name="218bmp" color="19" fill="1" visible="no" active="no"/>
<layer number="219" name="219bmp" color="20" fill="1" visible="no" active="no"/>
<layer number="220" name="220bmp" color="21" fill="1" visible="no" active="no"/>
<layer number="221" name="221bmp" color="22" fill="1" visible="no" active="no"/>
<layer number="222" name="222bmp" color="23" fill="1" visible="no" active="no"/>
<layer number="223" name="223bmp" color="24" fill="1" visible="no" active="no"/>
<layer number="224" name="224bmp" color="25" fill="1" visible="no" active="no"/>
<layer number="225" name="225bmp" color="7" fill="1" visible="yes" active="yes"/>
<layer number="226" name="226bmp" color="7" fill="1" visible="yes" active="yes"/>
<layer number="227" name="227bmp" color="7" fill="1" visible="yes" active="yes"/>
<layer number="228" name="228bmp" color="7" fill="1" visible="yes" active="yes"/>
<layer number="229" name="229bmp" color="7" fill="1" visible="yes" active="yes"/>
<layer number="230" name="230bmp" color="7" fill="1" visible="yes" active="yes"/>
<layer number="231" name="231bmp" color="7" fill="1" visible="yes" active="yes"/>
<layer number="232" name="Eagle3D_PG2" color="7" fill="1" visible="no" active="no"/>
<layer number="233" name="Eagle3D_PG3" color="7" fill="1" visible="no" active="no"/>
<layer number="248" name="Housing" color="7" fill="1" visible="yes" active="yes"/>
<layer number="249" name="Edge" color="7" fill="1" visible="yes" active="yes"/>
<layer number="250" name="Descript" color="3" fill="1" visible="no" active="no"/>
<layer number="251" name="SMDround" color="12" fill="11" visible="no" active="no"/>
<layer number="254" name="cooling" color="7" fill="1" visible="yes" active="yes"/>
<layer number="255" name="routoute" color="7" fill="1" visible="yes" active="yes"/>
</layers>
<schematic xreflabel="%F%N/%S.%C%R" xrefpart="/%S.%C%R">
<libraries>
<library name="Ladvien_Eagle_Parts">
<packages>
<package name="APDS9008">
<smd name="NCC1" x="0.08" y="-0.08" dx="0.577" dy="0.577" layer="1" rot="R90"/>
<smd name="VCC" x="1.41" y="-0.08" dx="0.577" dy="0.577" layer="1" rot="R90"/>
<smd name="GND" x="0.08" y="-1.52" dx="0.577" dy="0.577" layer="1" rot="R90"/>
<smd name="OUT" x="1.41" y="-1.52" dx="0.577" dy="0.577" layer="1" rot="R90"/>
<wire x1="0" y1="0" x2="0" y2="-1.6" width="0.07" layer="21"/>
<wire x1="0" y1="-1.6" x2="1.5" y2="-1.6" width="0.07" layer="21"/>
<wire x1="1.5" y1="-1.6" x2="1.5" y2="0" width="0.07" layer="21"/>
<wire x1="1.5" y1="0" x2="0" y2="0" width="0.07" layer="21"/>
<rectangle x1="0.114" y1="-1.124978125" x2="0.8681625" y2="-0.43944375" layer="21"/>
<circle x="2.2" y="-0.1" radius="0.1" width="0.127" layer="21"/>
<text x="-0.5" y="0.4" size="1.27" layer="25">&gt;NAME</text>
<text x="-0.5" y="-3.3" size="1.27" layer="27">&gt;VALUE</text>
</package>
<package name="KBREVMNTLED">
<smd name="V+" x="0" y="0" dx="0.8" dy="0.65" layer="16"/>
<smd name="GND" x="5.14398125" y="0" dx="0.8" dy="0.65" layer="16"/>
<wire x1="0.4158875" y1="0" x2="4.7158875" y2="0" width="0.127" layer="21"/>
<circle x="2.55" y="0" radius="1.0238" width="0.127" layer="21"/>
<hole x="2.54" y="0" drill="2.3"/>
<text x="-0.27" y="1.77" size="1.016" layer="25">&gt;NAME</text>
<text x="-0.27" y="-2.54" size="1.016" layer="27">&gt;VALUE</text>
</package>
</packages>
<symbols>
<symbol name="APDS9008">
<wire x1="0" y1="0" x2="0" y2="-17.78" width="0.254" layer="94"/>
<wire x1="0" y1="-17.78" x2="17.78" y2="-17.78" width="0.254" layer="94"/>
<wire x1="17.78" y1="-17.78" x2="17.78" y2="0" width="0.254" layer="94"/>
<wire x1="17.78" y1="0" x2="0" y2="0" width="0.254" layer="94"/>
<pin name="VCC" x="-5.08" y="-5.08" length="middle"/>
<pin name="GND" x="-5.08" y="-12.7" length="middle"/>
<pin name="NC" x="22.86" y="-5.08" length="middle" rot="R180"/>
<pin name="OUT" x="22.86" y="-12.7" length="middle" rot="R180"/>
<text x="0.5" y="0.54" size="1.27" layer="95">&gt;NAME</text>
<text x="0.5" y="-19.82" size="1.27" layer="96">&gt;VALUE</text>
</symbol>
<symbol name="KBREVMNTLED">
<wire x1="0" y1="0" x2="0" y2="-5.08" width="0.254" layer="94"/>
<wire x1="0" y1="-5.08" x2="7.62" y2="-5.08" width="0.254" layer="94"/>
<wire x1="7.62" y1="-5.08" x2="7.62" y2="0" width="0.254" layer="94"/>
<wire x1="7.62" y1="0" x2="0" y2="0" width="0.254" layer="94"/>
<pin name="V" x="-5.08" y="-2.54" length="middle"/>
<pin name="GND" x="12.7" y="-2.54" length="middle" rot="R180"/>
<text x="-0.04" y="0.5" size="1.016" layer="95">&gt;NAME</text>
<text x="0" y="-6.62" size="1.016" layer="96">&gt;VALUE</text>
</symbol>
</symbols>
<devicesets>
<deviceset name="APDS9008">
<gates>
<gate name="G$1" symbol="APDS9008" x="0" y="0"/>
</gates>
<devices>
<device name="" package="APDS9008">
<connects>
<connect gate="G$1" pin="GND" pad="GND"/>
<connect gate="G$1" pin="NC" pad="NCC1"/>
<connect gate="G$1" pin="OUT" pad="OUT"/>
<connect gate="G$1" pin="VCC" pad="VCC"/>
</connects>
<technologies>
<technology name=""/>
</technologies>
</device>
</devices>
</deviceset>
<deviceset name="KBREVMTNLED">
<gates>
<gate name="G$1" symbol="KBREVMNTLED" x="-3.81" y="2.286"/>
</gates>
<devices>
<device name="" package="KBREVMNTLED">
<connects>
<connect gate="G$1" pin="GND" pad="GND"/>
<connect gate="G$1" pin="V" pad="V+"/>
</connects>
<technologies>
<technology name=""/>
</technologies>
</device>
</devices>
</deviceset>
</devicesets>
</library>
<library name="MyLib">
<packages>
<package name="1MM_PIN_HEADER">
<pad name="P$1" x="0" y="0" drill="0.5" diameter="0.8" shape="square"/>
<pad name="P$2" x="1" y="0" drill="0.5" diameter="0.8"/>
<pad name="P$3" x="2" y="0" drill="0.5" diameter="0.8"/>
<text x="-1.1" y="0.7" size="1.016" layer="25">&gt;NAME</text>
<text x="-1.1" y="-1.7" size="1.016" layer="27">&gt;VALUE</text>
<wire x1="-1" y1="-0.5" x2="3" y2="-0.5" width="0.127" layer="21"/>
<wire x1="3" y1="-0.5" x2="3" y2="0.5" width="0.127" layer="21"/>
<wire x1="3" y1="0.5" x2="-1" y2="0.5" width="0.127" layer="21"/>
<wire x1="-1" y1="0.5" x2="-1" y2="-0.5" width="0.127" layer="21"/>
</package>
</packages>
<symbols>
<symbol name="1MM_PIN_HEADER">
<wire x1="0" y1="0" x2="0" y2="-15.24" width="0.254" layer="94"/>
<wire x1="0" y1="-15.24" x2="5.08" y2="-15.24" width="0.254" layer="94"/>
<wire x1="5.08" y1="-15.24" x2="5.08" y2="0" width="0.254" layer="94"/>
<wire x1="5.08" y1="0" x2="0" y2="0" width="0.254" layer="94"/>
<pin name="P$1" x="-5.08" y="-2.54" length="middle"/>
<pin name="P$2" x="-5.08" y="-7.62" length="middle"/>
<pin name="P$3" x="-5.08" y="-12.7" length="middle"/>
<text x="0" y="1" size="1.27" layer="95">&gt;NAME</text>
<text x="0" y="-17.78" size="1.27" layer="96">&gt;VALUE</text>
</symbol>
</symbols>
<devicesets>
<deviceset name="1MM_PIN_HEADER">
<gates>
<gate name="G$1" symbol="1MM_PIN_HEADER" x="-20.32" y="15.24"/>
</gates>
<devices>
<device name="" package="1MM_PIN_HEADER">
<connects>
<connect gate="G$1" pin="P$1" pad="P$1"/>
<connect gate="G$1" pin="P$2" pad="P$2"/>
<connect gate="G$1" pin="P$3" pad="P$3"/>
</connects>
<technologies>
<technology name=""/>
</technologies>
</device>
</devices>
</deviceset>
</devicesets>
</library>
<library name="supply2">
<description>&lt;b&gt;Supply Symbols&lt;/b&gt;&lt;p&gt;
GND, VCC, 0V, +5V, -5V, etc.&lt;p&gt;
Please keep in mind, that these devices are necessary for the
automatic wiring of the supply signals.&lt;p&gt;
The pin name defined in the symbol is identical to the net which is to be wired automatically.&lt;p&gt;
In this library the device names are the same as the pin names of the symbols, therefore the correct signal names appear next to the supply symbols in the schematic.&lt;p&gt;
&lt;author&gt;Created by librarian@cadsoft.de&lt;/author&gt;</description>
<packages>
</packages>
<symbols>
<symbol name="GND">
<wire x1="-1.27" y1="0" x2="1.27" y2="0" width="0.254" layer="94"/>
<wire x1="1.27" y1="0" x2="0" y2="-1.27" width="0.254" layer="94"/>
<wire x1="0" y1="-1.27" x2="-1.27" y2="0" width="0.254" layer="94"/>
<text x="-1.905" y="-3.175" size="1.778" layer="96">&gt;VALUE</text>
<pin name="GND" x="0" y="2.54" visible="off" length="short" direction="sup" rot="R270"/>
</symbol>
</symbols>
<devicesets>
<deviceset name="GND" prefix="SUPPLY">
<description>&lt;b&gt;SUPPLY SYMBOL&lt;/b&gt;</description>
<gates>
<gate name="GND" symbol="GND" x="0" y="0"/>
</gates>
<devices>
<device name="">
<technologies>
<technology name=""/>
</technologies>
</device>
</devices>
</deviceset>
</devicesets>
</library>
</libraries>
<attributes>
</attributes>
<variantdefs>
</variantdefs>
<classes>
<class number="0" name="default" width="0" drill="0">
</class>
</classes>
<parts>
<part name="U1" library="Ladvien_Eagle_Parts" deviceset="APDS9008" device=""/>
<part name="D1" library="Ladvien_Eagle_Parts" deviceset="KBREVMTNLED" device=""/>
<part name="JP1" library="MyLib" deviceset="1MM_PIN_HEADER" device=""/>
<part name="JP2" library="MyLib" deviceset="1MM_PIN_HEADER" device=""/>
<part name="SUPPLY1" library="supply2" deviceset="GND" device=""/>
</parts>
<sheets>
<sheet>
<plain>
</plain>
<instances>
<instance part="U1" gate="G$1" x="10.16" y="7.62"/>
<instance part="D1" gate="G$1" x="15.24" y="25.4"/>
<instance part="JP1" gate="G$1" x="55.88" y="5.08"/>
<instance part="JP2" gate="G$1" x="55.88" y="25.4"/>
<instance part="SUPPLY1" gate="GND" x="43.18" y="-15.24"/>
</instances>
<busses>
</busses>
<nets>
<net name="N$2" class="0">
<segment>
<wire x1="5.08" y1="22.86" x2="5.08" y2="17.78" width="0.1524" layer="91"/>
<pinref part="D1" gate="G$1" pin="V"/>
<wire x1="5.08" y1="22.86" x2="10.16" y2="22.86" width="0.1524" layer="91"/>
<wire x1="5.08" y1="17.78" x2="40.64" y2="17.78" width="0.1524" layer="91"/>
<wire x1="40.64" y1="17.78" x2="40.64" y2="22.86" width="0.1524" layer="91"/>
<pinref part="JP2" gate="G$1" pin="P$1"/>
<wire x1="40.64" y1="22.86" x2="50.8" y2="22.86" width="0.1524" layer="91"/>
</segment>
</net>
<net name="N$4" class="0">
<segment>
<wire x1="2.54" y1="2.54" x2="2.54" y2="10.16" width="0.1524" layer="91"/>
<wire x1="2.54" y1="10.16" x2="45.72" y2="10.16" width="0.1524" layer="91"/>
<pinref part="U1" gate="G$1" pin="VCC"/>
<wire x1="5.08" y1="2.54" x2="2.54" y2="2.54" width="0.1524" layer="91"/>
<wire x1="45.72" y1="10.16" x2="45.72" y2="-2.54" width="0.1524" layer="91"/>
<pinref part="JP1" gate="G$1" pin="P$2"/>
<wire x1="45.72" y1="-2.54" x2="50.8" y2="-2.54" width="0.1524" layer="91"/>
</segment>
</net>
<net name="N$1" class="0">
<segment>
<pinref part="U1" gate="G$1" pin="OUT"/>
<wire x1="33.02" y1="-5.08" x2="38.1" y2="-5.08" width="0.1524" layer="91"/>
<wire x1="38.1" y1="-5.08" x2="38.1" y2="-7.62" width="0.1524" layer="91"/>
<pinref part="JP1" gate="G$1" pin="P$3"/>
<wire x1="38.1" y1="-7.62" x2="50.8" y2="-7.62" width="0.1524" layer="91"/>
</segment>
</net>
<net name="N$3" class="0">
<segment>
<pinref part="D1" gate="G$1" pin="GND"/>
<wire x1="27.94" y1="22.86" x2="35.56" y2="22.86" width="0.1524" layer="91"/>
<wire x1="35.56" y1="22.86" x2="35.56" y2="15.24" width="0.1524" layer="91"/>
<wire x1="35.56" y1="15.24" x2="45.72" y2="15.24" width="0.1524" layer="91"/>
<wire x1="45.72" y1="15.24" x2="45.72" y2="17.78" width="0.1524" layer="91"/>
<pinref part="JP2" gate="G$1" pin="P$2"/>
<wire x1="45.72" y1="17.78" x2="50.8" y2="17.78" width="0.1524" layer="91"/>
</segment>
</net>
<net name="GND" class="0">
<segment>
<wire x1="5.08" y1="-5.08" x2="2.54" y2="-5.08" width="0.1524" layer="91"/>
<wire x1="2.54" y1="-5.08" x2="2.54" y2="-12.7" width="0.1524" layer="91"/>
<wire x1="2.54" y1="-12.7" x2="43.18" y2="-12.7" width="0.1524" layer="91"/>
<pinref part="U1" gate="G$1" pin="GND"/>
<wire x1="43.18" y1="-12.7" x2="43.18" y2="2.54" width="0.1524" layer="91"/>
<pinref part="JP1" gate="G$1" pin="P$1"/>
<wire x1="43.18" y1="2.54" x2="50.8" y2="2.54" width="0.1524" layer="91"/>
<pinref part="SUPPLY1" gate="GND" pin="GND"/>
<junction x="43.18" y="-12.7"/>
</segment>
</net>
</nets>
</sheet>
</sheets>
</schematic>
</drawing>
</eagle>
