Partlist exported from E:/work/cow_task/circuit/APDS9008_module/APDS9008_module.sch at 3/30/2017 4:36 AM

Part Value     Device       Package     Manufucturer
D1            AM2520ZGC09    Reel        Kingbright      http://www.mouser.com/ProductDetail/Kingbright/AM2520ZGC09/?qs=%2fha2pyFadugg%2f104iVqoqcFzpCakCXX8FkhSAgkR1rzPZevWNWqkIg%3d%3d
JP1  1MM_PIN_HEADER 1MM_PIN_HEADER 1MM_PIN_HEADER     Smolex        
JP2  1MM_PIN_HEADER 1MM_PIN_HEADER 1MM_PIN_HEADER     Smolex        
U1   APDS9008       APDS9008       APDS9008           Broadcom Limited         
